{
	//departamentos-empleados
  "departamento":8,
  "nombredepto":"Ventas",
  "director": "Pepe López",
  "empleados":[
    {
      "nombre":"Santiago",
      "apellido":"Gómez"
    },{
      "nombre":"Pedro",
      "apellido":"Morales"
    },{
	"nombre": "Julian",
	"apellido":"Rios"
	},{
	"nombre": "Ramiro",
	"apellido":"Quiron"
	}  
  ]
}

